Example Data Analysis: Medicare Part D Drug Price Negotiation – Ilina Odouard
…
#new variables: estimated annual cost using new prices, estimated total spending, percent change in spending
data <- data %>%
        mutate(annual_cost = 12*price30d) %>%
        mutate(est_spending = annual_cost*benes) %>%
        mutate(perc_diff = ((est_spending - spending)/spending)*100)

#express spending in millions
data <- data %>%
    mutate(spending = round(spending/1000000, digits=1),
            est_spending = round(est_spending/1000000, digits=1))

#view the dataset
data

# A tibble: 50 × 8
   molecule    year  price30d spending  benes annual_cost est_spending perc_diff
   <chr>       <chr>    <dbl>    <dbl>  <dbl>       <dbl>        <dbl>     <dbl>
 1 apixaban    2018      231     4992. 1.65e6        2772        4565.     -8.56
 2 apixaban    2019      231     7305  2.17e6        2772        6011.    -17.7 
 3 apixaban    2020      231     9936. 2.64e6        2772        7324.    -26.3 
 4 apixaban    2021      231    12575. 3.13e6        2772        8663.    -31.1 
 5 apixaban    2022      231    15220. 3.51e6        2772        9716.    -36.2 
 6 dapagliflo… 2018      178.     391. 1.27e5        2142         272.    -30.4 
 7 dapagliflo… 2019      178.     562. 1.56e5        2142         335.    -40.4 
 8 dapagliflo… 2020      178.     813. 2.14e5        2142         459.    -43.5 
 9 dapagliflo… 2021      178.    1538  4.15e5        2142         890.    -42.1 
10 dapagliflo… 2022      178.    2740. 6.75e5        2142        1446.    -47.2 
# ℹ 40 more rows
…
